<?xml version="1.0" encoding="UTF-8" standalone="no"?>
<!-- Created with Inkscape (http://www.inkscape.org/) -->

<svg
   xmlns:dc="http://purl.org/dc/elements/1.1/"
   xmlns:cc="http://creativecommons.org/ns#"
   xmlns:rdf="http://www.w3.org/1999/02/22-rdf-syntax-ns#"
   xmlns:svg="http://www.w3.org/2000/svg"
   xmlns="http://www.w3.org/2000/svg"
   xmlns:sodipodi="http://sodipodi.sourceforge.net/DTD/sodipodi-0.dtd"
   xmlns:inkscape="http://www.inkscape.org/namespaces/inkscape"
   width="48"
   height="48"
   viewBox="0 0 12.7 12.7"
   version="1.1"
   id="svg8"
   sodipodi:docname="icon.svg"
   inkscape:version="0.92.4 (f8dce91, 2019-08-02)"
   inkscape:export-filename="/home/rob/projects/reddit-extras/icons/icon-48.png"
   inkscape:export-xdpi="96"
   inkscape:export-ydpi="96">
  <defs
     id="defs2">
    <marker
       style="overflow:visible"
       id="DistanceStart"
       refX="0.0"
       refY="0.0"
       orient="auto"
       inkscape:stockid="DistanceStart"
       inkscape:isstock="true">
      <g
         id="g2300"
         style="stroke:#000000;stroke-opacity:1;fill:#0000ff;fill-opacity:1">
        <path
           style="fill:#0000ff;stroke:#000000;stroke-width:1.15;stroke-linecap:square;stroke-opacity:1;fill-opacity:1"
           d="M 0,0 L 2,0"
           id="path2306" />
        <path
           style="fill:#0000ff;fill-rule:evenodd;stroke:#000000;stroke-opacity:1;fill-opacity:1"
           d="M 0,0 L 13,4 L 9,0 13,-4 L 0,0 z "
           id="path2302" />
        <path
           style="fill:#0000ff;stroke:#000000;stroke-width:1;stroke-linecap:square;stroke-opacity:1;fill-opacity:1"
           d="M 0,-4 L 0,40"
           id="path2304" />
      </g>
    </marker>
    <marker
       inkscape:stockid="Arrow1Lstart"
       orient="auto"
       refY="0.0"
       refX="0.0"
       id="Arrow1Lstart"
       style="overflow:visible"
       inkscape:isstock="true">
      <path
         id="path4604"
         d="M 0.0,0.0 L 5.0,-5.0 L -12.5,0.0 L 5.0,5.0 L 0.0,0.0 z "
         style="fill-rule:evenodd;stroke:#000000;stroke-width:1pt;stroke-opacity:1;fill:#0000ff;fill-opacity:1"
         transform="scale(0.8) translate(12.5,0)" />
    </marker>
    <marker
       inkscape:stockid="DotL"
       orient="auto"
       refY="0.0"
       refX="0.0"
       id="DotL"
       style="overflow:visible"
       inkscape:isstock="true">
      <path
         id="path4665"
         d="M -2.5,-1.0 C -2.5,1.7600000 -4.7400000,4.0 -7.5,4.0 C -10.260000,4.0 -12.5,1.7600000 -12.5,-1.0 C -12.5,-3.7600000 -10.260000,-6.0 -7.5,-6.0 C -4.7400000,-6.0 -2.5,-3.7600000 -2.5,-1.0 z "
         style="fill-rule:evenodd;stroke:#000000;stroke-width:1pt;stroke-opacity:1;fill:#0000ff;fill-opacity:1"
         transform="scale(0.8) translate(7.4, 1)" />
    </marker>
    <inkscape:perspective
       sodipodi:type="inkscape:persp3d"
       inkscape:vp_x="0.18482328 : 5.9671518 : 1"
       inkscape:vp_y="0 : 1000 : 0"
       inkscape:vp_z="12.7 : 6.35 : 1"
       inkscape:persp3d-origin="6.35 : 4.2333333 : 1"
       id="perspective4485" />
  </defs>
  <sodipodi:namedview
     id="base"
     pagecolor="#ffffff"
     bordercolor="#666666"
     borderopacity="1.0"
     inkscape:pageopacity="0.0"
     inkscape:pageshadow="2"
     inkscape:zoom="0.88572492"
     inkscape:cx="352.68201"
     inkscape:cy="19.312219"
     inkscape:document-units="mm"
     inkscape:current-layer="layer1"
     showgrid="false"
     units="px"
     inkscape:window-width="1920"
     inkscape:window-height="1144"
     inkscape:window-x="3840"
     inkscape:window-y="0"
     inkscape:window-maximized="1" />
  <metadata
     id="metadata5">
    <rdf:RDF>
      <cc:Work
         rdf:about="">
        <dc:format>image/svg+xml</dc:format>
        <dc:type
           rdf:resource="http://purl.org/dc/dcmitype/StillImage" />
        <dc:title />
      </cc:Work>
    </rdf:RDF>
  </metadata>
  <g
     inkscape:label="Layer 1"
     inkscape:groupmode="layer"
     id="layer1"
     transform="translate(0,-284.29998)">
    <g
       id="g3764"
       transform="translate(-0.05617101,0.04812)">
      <path
         id="path3744"
         d="m 6.406171,296.3858 v 0 c -3.1938916,0 -5.78393998,-2.59005 -5.78393998,-5.78394 v 0 c 0,-3.19389 2.59004838,-5.78394 5.78393998,-5.78394 v 0 c 3.1938917,0 5.78394,2.59005 5.78394,5.78394 v 0 c 0,3.19389 -2.5900483,5.78394 -5.78394,5.78394 z"
         class="st0"
         inkscape:connector-curvature="0"
         style="fill:#0000ff;stroke-width:0.01156788" />
      <path
         id="Fill-3"
         d="m 7.7318501,291.80723 c -0.3319982,0 -0.6026866,-0.27069 -0.6026866,-0.60268 0,-0.332 0.2706884,-0.60269 0.6026866,-0.60269 0.3319981,0 0.6026865,0.27069 0.6026865,0.60269 0,0.33199 -0.2706884,0.60268 -0.6026865,0.60268 m 0.1064245,0.98906 c -0.4118166,0.41066 -1.1995892,0.44305 -1.4309468,0.44305 -0.2313576,0 -1.020287,-0.0324 -1.4309467,-0.44305 -0.06131,-0.0613 -0.06131,-0.15964 0,-0.22095 0.06131,-0.0613 0.1596367,-0.0613 0.2209465,0 0.2591205,0.25912 0.8132219,0.35166 1.2100002,0.35166 0.3956215,0 0.9508797,-0.0925 1.2100003,-0.35166 0.06131,-0.0613 0.1596367,-0.0613 0.2209465,0 0.060153,0.0613 0.060153,0.15964 0,0.22095 m -3.3604692,-1.59174 c 0,-0.332 0.2706884,-0.60269 0.6026866,-0.60269 0.3319981,0 0.6026865,0.27069 0.6026865,0.60269 0,0.33199 -0.2706884,0.60268 -0.6026865,0.60268 -0.3319982,0 -0.6026866,-0.27069 -0.6026866,-0.60268 m 5.7839396,-0.60269 c 0,-0.46619 -0.3771125,-0.8433 -0.843298,-0.8433 -0.2278873,0 -0.4337955,0.0902 -0.5853348,0.23714 -0.5760804,-0.41644 -1.3707937,-0.68482 -2.2557366,-0.71605 l 0.3840537,-1.80806 1.2551149,0.26722 c 0.015038,0.31927 0.2764724,0.57377 0.5992162,0.57377 0.333155,0 0.6026866,-0.26954 0.6026866,-0.60269 0,-0.33315 -0.2695316,-0.60269 -0.6026866,-0.60269 -0.2371415,0 -0.4395794,0.13766 -0.5379064,0.33663 l -1.4020271,-0.29845 c -0.039331,-0.008 -0.079818,-10e-4 -0.1133652,0.0208 -0.033547,0.022 -0.056683,0.0555 -0.06478,0.0949 l -0.4210708,1.98389 c -0.00231,0.0116 0,0.022 0,0.0335 -0.9011379,0.0231 -1.7108895,0.29267 -2.2962242,0.7149 -0.1515392,-0.14576 -0.3562907,-0.23483 -0.5830212,-0.23483 -0.4661855,0 -0.8432984,0.37827 -0.8432984,0.8433 0,0.34241 0.2047515,0.63739 0.4985756,0.76926 -0.012725,0.0833 -0.019665,0.1689 -0.019665,0.25565 0,1.29792 1.5107651,2.34944 3.3743506,2.34944 1.8635855,0 3.3743506,-1.05152 3.3743506,-2.34944 0,-0.0856 -0.00694,-0.17004 -0.019665,-0.25333 0.2926671,-0.13188 0.4997321,-0.42686 0.4997321,-0.77158"
         class="st1"
         inkscape:connector-curvature="0"
         style="fill:#ffffff;stroke-width:0.01156788" />
    </g>
  </g>
  <style
     id="style3740"
     type="text/css">
	.st0{fill:#FF4500;}
	.st1{fill:#FFFFFF;}
</style>
</svg>
